…
``` r
Catch %>% dplyr::group_by(VIMSCODE) %>% dplyr::summarise(N_STATIONS=n_distinct(STATION)) %>% dplyr::arrange(-N_STATIONS)
```

    ## # A tibble: 73 × 2
    ##    VIMSCODE N_STATIONS
    ##       <int>      <int>
    ##  1     1028        140
    ##  2        4        135
    ##  3        1        134
    ##  4      171        131
    ##  5        3        120
    ##  6      163        119
    ##  7       44        118
    ##  8        6        110
    ##  9        2         85
    ## 10       15         83
    ## # ℹ 63 more rows
…
